/Users/dilipkumar/Desktop/Workspace/CITI/SDET/CITIAPP_Script/src/test/java/com/citi/mobileAutomation/runnerClass/RunnerFile.java
/Users/dilipkumar/Desktop/Workspace/CITI/SDET/CITIAPP_Script/src/test/java/com/citi/mobileAutomation/runnerClass/Retail_Dashboard_StepDef.java
/Users/dilipkumar/Desktop/Workspace/CITI/SDET/CITIAPP_Script/src/test/java/com/citi/mobileAutomation/runnerClass/PromptPay_TH_Adhoc_TopUp_StepDef.java
/Users/dilipkumar/Desktop/Workspace/CITI/SDET/CITIAPP_Script/src/test/java/com/citi/mobileAutomation/runnerClass/Positive_Friction_DelightBox_StepDef.java
/Users/dilipkumar/Desktop/Workspace/CITI/SDET/CITIAPP_Script/src/test/java/com/citi/mobileAutomation/runnerClass/Positive_Friction_CardsOnboarding_StepDef.java
/Users/dilipkumar/Desktop/Workspace/CITI/SDET/CITIAPP_Script/src/test/java/com/citi/mobileAutomation/runnerClass/MRC_Dashboard_StepDef.java
/Users/dilipkumar/Desktop/Workspace/CITI/SDET/CITIAPP_Script/src/test/java/com/citi/mobileAutomation/runnerClass/GMSunset_AccountLinkage_StepDef.java
/Users/dilipkumar/Desktop/Workspace/CITI/SDET/CITIAPP_Script/src/test/java/com/citi/mobileAutomation/runnerClass/SG_FastDowntime_StepDef.java
/Users/dilipkumar/Desktop/Workspace/CITI/SDET/CITIAPP_Script/src/test/java/com/citi/mobileAutomation/mvnGenerator/TestScript.java
/Users/dilipkumar/Desktop/Workspace/CITI/SDET/CITIAPP_Script/src/test/java/com/citi/mobileAutomation/runnerClass/QuickCash_StepDef.java
/Users/dilipkumar/Desktop/Workspace/CITI/SDET/CITIAPP_Script/src/test/java/com/citi/mobileAutomation/runnerClass/Positive_Friction_Product_Palette_StepDef.java
/Users/dilipkumar/Desktop/Workspace/CITI/SDET/CITIAPP_Script/src/test/java/com/citi/mobileAutomation/runnerClass/Positive_Friction_Banner_UDF_StepDef.java
/Users/dilipkumar/Desktop/Workspace/CITI/SDET/CITIAPP_Script/src/test/java/com/citi/mobileAutomation/mvnGenerator/CheckStatus.java
/Users/dilipkumar/Desktop/Workspace/CITI/SDET/CITIAPP_Script/src/test/java/com/citi/mobileAutomation/runnerClass/Login_StepDef.java
/Users/dilipkumar/Desktop/Workspace/CITI/SDET/CITIAPP_Script/src/test/java/com/citi/mobileAutomation/runnerClass/RU_IncomeCode_StepDef.java
